<svg width="636" height="485" viewBox="0 0 636 485" fill="none" xmlns="http://www.w3.org/2000/svg">
<g opacity="0.34" clip-path="url(#clip0)">
<path d="M635.767 284.078C635.762 273.607 633.427 263.267 628.931 253.81C624.436 244.352 617.893 236.013 609.777 229.396C601.66 222.779 592.173 218.051 582.004 215.553C571.834 213.055 561.236 212.851 550.977 214.955C540.719 217.059 531.057 221.418 522.691 227.717C514.326 234.017 507.466 242.098 502.61 251.375C497.753 260.652 495.022 270.894 494.613 281.357C494.203 291.821 496.127 302.244 500.244 311.872C500.175 311.796 500.104 311.721 500.035 311.644C503.171 318.953 507.519 325.68 512.894 331.541C512.91 331.559 512.927 331.576 512.943 331.594C513.377 332.067 513.813 332.537 514.259 332.998C520.711 339.727 528.436 345.107 536.984 348.827C545.533 352.546 554.735 354.53 564.057 354.664L561.671 484.242H569.042L567.55 398.719L578.213 393.106L576.586 390.017L567.482 394.809L566.782 354.658C585.222 354.235 602.764 346.614 615.656 333.423C628.549 320.233 635.767 302.522 635.767 284.078Z" fill="#E6E6E6"/>
<path d="M426.211 249.668C426.204 237.396 423.468 225.279 418.2 214.196C412.932 203.112 405.264 193.339 395.752 185.585C386.241 177.831 375.123 172.289 363.205 169.362C351.287 166.435 338.867 166.196 326.845 168.661C314.822 171.127 303.499 176.236 293.696 183.618C283.892 191 275.854 200.47 270.162 211.342C264.471 222.215 261.27 234.217 260.79 246.479C260.311 258.741 262.565 270.957 267.39 282.24C267.309 282.15 267.226 282.063 267.145 281.972C270.82 290.538 275.915 298.421 282.215 305.29C282.234 305.311 282.253 305.331 282.272 305.352C282.78 305.906 283.291 306.457 283.814 306.997C291.376 314.883 300.428 321.188 310.446 325.547C320.465 329.906 331.249 332.232 342.173 332.389L339.377 484.242H348.015L346.267 384.017L358.762 377.439L356.856 373.818L346.187 379.435L345.366 332.381C366.976 331.886 387.534 322.954 402.643 307.496C417.751 292.038 426.211 271.282 426.211 249.668Z" fill="#E6E6E6"/>
<path d="M188.55 217.301C188.543 203.336 185.429 189.548 179.434 176.935C173.439 164.322 164.713 153.201 153.889 144.376C143.065 135.552 130.413 129.246 116.851 125.915C103.288 122.584 89.1542 122.312 75.4733 125.118C61.7924 127.923 48.907 133.737 37.7507 142.138C26.5944 150.538 17.4466 161.315 10.9701 173.688C4.49351 186.06 0.850445 199.718 0.304808 213.673C-0.240829 227.627 2.32463 241.528 7.81531 254.368C7.72324 254.266 7.6281 254.166 7.53648 254.063C11.7187 263.81 17.5165 272.782 24.6856 280.599C24.707 280.622 24.729 280.645 24.7504 280.669C25.3288 281.299 25.9106 281.926 26.5058 282.541C35.1103 291.515 45.4118 298.69 56.8124 303.651C68.2129 308.611 80.4853 311.257 92.9171 311.436L89.7354 484.242H99.5651L97.5757 370.188L111.795 362.702L109.626 358.582L97.4848 364.974L96.5508 311.427C121.142 310.864 144.537 300.699 161.73 283.109C178.924 265.518 188.55 241.898 188.55 217.301Z" fill="#E6E6E6"/>
<path d="M541.95 123.148C575.958 123.148 603.528 95.5801 603.528 61.5738C603.528 27.5675 575.958 -7.62939e-06 541.95 -7.62939e-06C507.942 -7.62939e-06 480.373 27.5675 480.373 61.5738C480.373 95.5801 507.942 123.148 541.95 123.148Z" fill="#DDDBFF"/>
<path d="M175.873 257.772C244.032 257.772 299.286 202.521 299.286 134.366C299.286 66.2114 244.032 10.9608 175.873 10.9608C107.714 10.9608 52.4607 66.2114 52.4607 134.366C52.4607 202.521 107.714 257.772 175.873 257.772Z" fill="#D0D0D0"/>
<path opacity="0.2" d="M84.7496 51.9411C73.2379 78.8674 71.6763 109.009 80.3437 136.981C89.0112 164.953 107.343 188.931 132.063 204.631C156.783 220.332 186.281 226.731 215.285 222.686C244.29 218.641 270.911 204.415 290.391 182.55C283.359 199.001 272.834 213.726 259.546 225.706C246.257 237.686 230.523 246.633 213.433 251.928C196.343 257.224 178.306 258.741 160.572 256.374C142.838 254.007 125.83 247.813 110.727 238.22C95.6246 228.628 82.7881 215.868 73.107 200.822C63.426 185.777 57.1319 168.807 54.6608 151.088C52.1898 133.368 53.6009 115.324 58.7964 98.2041C63.9918 81.0844 72.8474 65.2989 84.7496 51.9411Z" fill="#7877A3"/>
<path d="M176.212 134.366H176.552L182.655 484.242H169.771L176.212 134.366Z" fill="#3F3D56"/>
<path d="M195.84 319.542L175.44 330.282L178.283 335.681L198.684 324.942L195.84 319.542Z" fill="#3F3D56"/>
<path d="M364.637 480.969C364.637 480.969 365.082 471.64 374.21 472.724L364.637 480.969Z" fill="#3F3D56"/>
<path d="M362.058 472.091C364.581 472.091 366.626 470.046 366.626 467.523C366.626 465 364.581 462.954 362.058 462.954C359.534 462.954 357.489 465 357.489 467.523C357.489 470.046 359.534 472.091 362.058 472.091Z" fill="#6C63FF"/>
<path d="M362.604 475.215H361.314V484.242H362.604V475.215Z" fill="#3F3D56"/>
<path d="M48.0459 479.679C48.0459 479.679 48.4912 470.35 57.6191 471.434L48.0459 479.679Z" fill="#3F3D56"/>
<path d="M45.4667 470.801C47.9898 470.801 50.0352 468.756 50.0352 466.233C50.0352 463.71 47.9898 461.665 45.4667 461.665C42.9436 461.665 40.8982 463.71 40.8982 466.233C40.8982 468.756 42.9436 470.801 45.4667 470.801Z" fill="#6C63FF"/>
<path d="M46.013 473.926H44.7234V482.952H46.013V473.926Z" fill="#3F3D56"/>
<path d="M122.841 480.324C122.841 480.324 123.287 470.995 132.415 472.079L122.841 480.324Z" fill="#3F3D56"/>
<path d="M120.262 471.446C122.785 471.446 124.831 469.401 124.831 466.878C124.831 464.355 122.785 462.31 120.262 462.31C117.739 462.31 115.694 464.355 115.694 466.878C115.694 469.401 117.739 471.446 120.262 471.446Z" fill="#6C63FF"/>
<path d="M120.808 474.57H119.519V483.597H120.808V474.57Z" fill="#3F3D56"/>
<path d="M321.755 59.6565L330.919 52.3275C323.8 51.5422 320.875 55.4245 319.678 58.4974C314.116 56.1881 308.062 59.2146 308.062 59.2146L326.397 65.8705C325.472 63.4 323.862 61.2444 321.755 59.6565Z" fill="#3F3D56"/>
<path d="M461.119 134.312L470.283 126.983C463.164 126.197 460.239 130.08 459.042 133.153C453.48 130.843 447.426 133.87 447.426 133.87L465.761 140.526C464.836 138.055 463.226 135.9 461.119 134.312Z" fill="#3F3D56"/>
<path d="M310.805 198.017L319.969 190.688C312.85 189.903 309.925 193.785 308.728 196.858C303.166 194.549 297.112 197.576 297.112 197.576L315.447 204.231C314.522 201.761 312.912 199.605 310.805 198.017Z" fill="#3F3D56"/>
<path d="M489.645 484.355C489.645 484.355 490.09 475.026 499.218 476.11L489.645 484.355Z" fill="#3F3D56"/>
<path d="M403.888 484.355C403.888 484.355 404.333 475.026 413.461 476.11L403.888 484.355Z" fill="#3F3D56"/>
<path d="M91.1663 484.355C91.1663 484.355 91.6115 475.026 100.74 476.11L91.1663 484.355Z" fill="#3F3D56"/>
<path d="M528.332 484.355C528.332 484.355 528.778 475.026 537.906 476.11L528.332 484.355Z" fill="#3F3D56"/>
<path d="M510.278 484.355C510.278 484.355 510.723 475.026 519.851 476.11L510.278 484.355Z" fill="#3F3D56"/>
<path d="M473.036 484.355C473.036 484.355 472.59 475.026 463.462 476.11L473.036 484.355Z" fill="#3F3D56"/>
<path d="M324.735 484.355C324.735 484.355 324.289 475.026 315.161 476.11L324.735 484.355Z" fill="#3F3D56"/>
<path d="M201.58 484.355C201.58 484.355 201.135 475.026 192.007 476.11L201.58 484.355Z" fill="#3F3D56"/>
<path d="M70.6882 484.355C70.6882 484.355 70.243 475.026 61.115 476.11L70.6882 484.355Z" fill="#3F3D56"/>
<path d="M567.175 484.355C567.175 484.355 566.729 475.026 557.602 476.11L567.175 484.355Z" fill="#3F3D56"/>
<path d="M511.723 485C511.723 485 511.278 475.671 502.15 476.755L511.723 485Z" fill="#3F3D56"/>
<path d="M636 483.135H0V484.568H636V483.135Z" fill="#3F3D56"/>
</g>
<defs>
<clipPath id="clip0">
<rect width="636" height="485" fill="white"/>
</clipPath>
</defs>
</svg>
